<?xml version="1.0"?>
<svg xmlns="http://www.w3.org/2000/svg" version="1" viewBox="0 0 24 24" enable-background="new 0 0 24 24">
    <path fill="#95a0b3" d="M 3.4375 2.03125 L 2.03125 3.4375 L 3.59375 5.03125 C 2.6845703 5.2185547 2 6.0375 2 7 L 2 17 C 2 18.1 2.9 19 4 19 L 6 19 L 6 7.40625 L 7 8.40625 L 7 19 L 17.59375 19 L 20.5625 21.96875 L 21.96875 20.5625 L 17 15.59375 L 7 5.59375 L 3.4375 2.03125 z M 10.5 3 C 9.7 3 9 3.7 9 4.5 L 9 4.8125 L 17 12.8125 L 17 5 L 15 5 L 15 4.5 C 15 3.7 14.3 3 13.5 3 L 10.5 3 z M 10.5 4 L 13.5 4 C 13.8 4 14 4.2 14 4.5 L 14 5 L 10 5 L 10 4.5 C 10 4.2 10.2 4 10.5 4 z M 18 5 L 18 13.8125 L 21.90625 17.6875 C 22.00625 17.4875 22 17.2 22 17 L 22 7 C 22 5.9 21.1 5 20 5 L 18 5 z"/>
</svg>
